…
``` r
base_url = "https://www.amazon.com/product-reviews/B00005JNBQ/ref=cm_cr_arp_d_viewopt_rvwer?ie=UTF8&reviewerType=avp_only_reviews&sortBy=recent&pageNumber="

urls = str_c(base_url,1:5)

bind_rows(
  get_page_reviews(urls[1]),
  get_page_reviews(urls[2]),
  get_page_reviews(urls[3]),
  get_page_reviews(urls[4]),
  get_page_reviews(urls[5]))
```

    ## # A tibble: 50 × 3
    ##    title                                                 stars   text           
    ##    <chr>                                                 <chr>   <chr>          
    ##  1 I Just everyone to know this....                      5.0 ou… "\n  VOTE FOR …
    ##  2 the cobweb in his hair during the bike ramp scene lol 5.0 ou… "\n  5 stars f…
    ##  3 Best quirky movie ever                                5.0 ou… "\n  You all k…
    ##  4 Classic Film                                          5.0 ou… "\n  Had to or…
    ##  5 hehehehe                                              5.0 ou… "\n  goodjobbo…
    ##  6 Painful                                               1.0 ou… "\n  I think I…
    ##  7 GRAND                                                 5.0 ou… "\n  GRAND\n"  
    ##  8 Hello, 90s                                            5.0 ou… "\n  So nostal…
    ##  9 Cult Classic                                          5.0 ou… "\n  Watched i…
    ## 10 Format was inaccurate                                 4.0 ou… "\n  There was…
    ## # … with 40 more rows
…
